('/Users/kotyzalukas/coding/server/build/server/PKG-00.pkg',
 {'BINARY': 1,
  'DATA': 1,
  'EXECUTABLE': 1,
  'EXTENSION': 1,
  'PYMODULE': 1,
  'PYSOURCE': 1,
  'PYZ': 0},
 [('PYZ-00.pyz',
   '/Users/kotyzalukas/coding/server/build/server/PYZ-00.pyz',
   'PYZ'),
  ('_struct',
   '/Library/Frameworks/Python.framework/Versions/3.7/lib/python3.7/lib-dynload/_struct.cpython-37m-darwin.so',
   'EXTENSION'),
  ('zlib',
   '/Library/Frameworks/Python.framework/Versions/3.7/lib/python3.7/lib-dynload/zlib.cpython-37m-darwin.so',
   'EXTENSION'),
  ('struct',
   '/Library/Frameworks/Python.framework/Versions/3.7/lib/python3.7/struct.pyo',
   'PYMODULE'),
  ('pyimod01_os_path',
   '/Library/Frameworks/Python.framework/Versions/3.7/lib/python3.7/site-packages/PyInstaller/loader/pyimod01_os_path.pyc',
   'PYMODULE'),
  ('pyimod02_archive',
   '/Library/Frameworks/Python.framework/Versions/3.7/lib/python3.7/site-packages/PyInstaller/loader/pyimod02_archive.pyc',
   'PYMODULE'),
  ('pyimod03_importers',
   '/Library/Frameworks/Python.framework/Versions/3.7/lib/python3.7/site-packages/PyInstaller/loader/pyimod03_importers.pyc',
   'PYMODULE'),
  ('pyiboot01_bootstrap',
   '/Library/Frameworks/Python.framework/Versions/3.7/lib/python3.7/site-packages/PyInstaller/loader/pyiboot01_bootstrap.py',
   'PYSOURCE'),
  ('server', '/Users/kotyzalukas/coding/server/server.py', 'PYSOURCE')],
 True,
 False,
 False,
 [])
